drwxrwxrwx+ 3 dyazit l3info   0 avril 20  2018 TP_conception
drwxrwxrwx+ 3 dyazit l3info   0 avril 20  2018 TP_documentation
drwxrwxrwx+ 5 dyazit l3info   0 avril 20  2018 TP_compilation
drwxrwxrwx+ 5 dyazit l3info   0 avril 20  2018 TP_tests
drwxrwxrwx+ 6 dyazit l3info   0 avril 20  2018 TP_uml
drwxrwxr-x+ 4 dyazit l3info   0 mars   7 13:14 tmp
-rwxrwxrwx+ 1 dyazit l3info 145 avril  4  2018 README.md
-rwxrwxrwx+ 1 dyazit l3info 467 avril  4  2018 shell.nix
-rwxrwxr-x+ 1 dyazit l3info   0 mars   7 14:01 liste.txt
-rwxrwxr-x+ 1 dyazit l3info  16 mars   7 13:58 informartique
total 16
